<svg width="40" height="40" viewBox="0 0 40 40" fill="none" xmlns="http://www.w3.org/2000/svg">
<g clip-path="url(#clip0)">
<path d="M19.7147 7.80145C21.8695 7.80145 23.6158 6.05541 23.6158 3.90097C23.6158 1.74604 21.8695 0 19.7147 0C17.5605 0 15.8138 1.74604 15.8138 3.90097C15.8138 6.05541 17.5605 7.80145 19.7147 7.80145Z" fill="#343338"/>
<path d="M30.0883 25.8194H29.8356V23.5809C30.3035 23.1019 30.4611 22.3732 30.1667 21.728L24.6041 9.54085C24.2988 8.87022 23.6068 8.521 22.9118 8.59531H16.5176C15.8217 8.521 15.1308 8.87014 14.825 9.54085L9.26189 21.7281C8.87976 22.566 9.24903 23.5561 10.0867 23.9386C10.3113 24.0409 10.5472 24.0898 10.7777 24.0898C11.4112 24.0898 12.0174 23.7275 12.2974 23.1135L14.9851 17.2244L14.9811 37.9982C14.9811 39.1041 15.8768 40 16.9831 40C18.0895 40 18.9852 39.1041 18.9852 37.9982V26.0677H20.445V37.9982C20.445 39.1041 21.3401 40 22.447 40C23.5534 40 24.449 39.1041 24.449 37.9982L24.4436 17.2244L27.1327 23.1135C27.2839 23.447 27.5366 23.6982 27.8335 23.8657V25.8195H27.5807C27.1391 25.8195 26.7807 26.1778 26.7807 26.6197V34.9873C26.7807 35.4291 27.1391 35.7875 27.5807 35.7875H30.0883C30.5305 35.7875 30.8889 35.4291 30.8889 34.9873V26.6196C30.8889 26.1778 30.5305 25.8194 30.0883 25.8194ZM21.0967 17.6675L20.029 19.7025C19.9666 19.8192 19.8466 19.8924 19.7138 19.8924C19.5834 19.8924 19.4609 19.8193 19.401 19.702L18.3318 17.6675C18.2693 17.5495 18.2396 17.4197 18.2406 17.286C18.251 16.4097 18.3398 12.9555 18.9851 11.423L18.4909 10.9275C18.3516 10.7887 18.3516 10.5647 18.4909 10.4258L19.4634 9.4528C19.6017 9.31405 19.8257 9.31405 19.9651 9.4528L20.9386 10.4258C21.0055 10.4922 21.0431 10.5827 21.0431 10.6767C21.0431 10.7706 21.0055 10.8611 20.9386 10.9275L20.4434 11.423C21.0898 12.9555 21.1775 16.4097 21.188 17.286C21.1889 17.4184 21.1576 17.55 21.0967 17.6675Z" fill="#343338"/>
</g>
<defs>
<clipPath id="clip0">
<rect width="40" height="40" fill="white"/>
</clipPath>
</defs>
</svg>
